Visualização
…
Linhas

carne <- read_csv2("dados/carne.csv")

carne_t1 <- carne %>% 
  gather(ano, ton, 2:dim(.)[2]) %>% 
  mutate(ano = ymd(paste(ano, 01, 01, sep = "-")))

carne_t1

## # A tibble: 33 x 3
##          tipo        ano        ton
##         <chr>     <date>      <dbl>
## 1    producao 2005-01-01 119019.000
## 2  importacao 2005-01-01  69474.500
## 3  exportacao 2005-01-01   1753.056
## 4    producao 2006-01-01 106087.000
## 5  importacao 2006-01-01  89651.222
## 6  exportacao 2006-01-01   3201.433
## 7    producao 2007-01-01  91743.000
## 8  importacao 2007-01-01 101547.725
## 9  exportacao 2007-01-01    832.395
## 10   producao 2008-01-01 108540.000
## # ... with 23 more rows
…
carne_t3 <- carne_t2 %>%
  select(ano, producao, consumo) %>% 
  gather(tipo, ton, -ano)

carne_t3

## # A tibble: 22 x 3
##           ano     tipo    ton
##        <date>    <chr>  <dbl>
## 1  2005-01-01 producao 119019
## 2  2006-01-01 producao 106087
## 3  2007-01-01 producao  91743
## 4  2008-01-01 producao 108540
## 5  2009-01-01 producao 102995
## 6  2010-01-01 producao  93159
## 7  2011-01-01 producao  96003
## 8  2012-01-01 producao  92988
## 9  2013-01-01 producao  84011
## 10 2014-01-01 producao  79842
## # ... with 12 more rows
…
cafe <- read_csv2("dados/cafe.csv")

cafe_t1 <- cafe %>% 
  gather(tipo, ton, arabica, robusta, dcaf, conab) %>% 
  mutate(estoque = ifelse(tipo %in% c("arabica", "robusta"), "privado", "governo"))

cafe_t1

## # A tibble: 48 x 4
##      ano    tipo   ton estoque
##    <int>   <chr> <dbl>   <chr>
## 1   2004 arabica  7723 privado
## 2   2005 arabica 10872 privado
## 3   2006 arabica  9278 privado
## 4   2007 arabica 16781 privado
## 5   2008 arabica 11490 privado
## 6   2009 arabica 14005 privado
## 7   2010 arabica  8245 privado
## 8   2011 arabica  8233 privado
## 9   2012 arabica  7722 privado
## 10  2013 arabica 12366 privado
## # ... with 38 more rows
…
ferm <- read_csv2("dados/fermentacao.csv")

ferm

## # A tibble: 96 x 5
##    composicao   dia repeticao fermentacao    ph
##         <chr> <int>     <int>       <dbl> <dbl>
## 1           A     1         1    3.433333   7.2
## 2           A     1         2    3.433333   7.2
## 3           A     2         1    3.433333   7.2
## 4           A     2         2    3.433333   7.2
## 5           A     3         1    3.433333   7.2
## 6           A     3         2    3.433333   7.0
## 7           A     4         1    3.233333   7.0
## 8           A     4         2    3.233333   7.0
## 9           A     5         1    3.233333   6.8
## 10          A     5         2    3.233333   6.8
## # ... with 86 more rows
…
Boxplot

dados <- read_csv2("dados/base_vespa.csv")

dados

## # A tibble: 2,100 x 5
##    Tratamento Individuo Coleta   Local Galhas
##         <chr>     <int>  <int>   <chr>  <int>
## 1   Actara d1         1      1 Peciolo      1
## 2   Actara d1         2      1 Peciolo     NA
## 3   Actara d1         3      1 Peciolo     NA
## 4   Actara d1         4      1 Peciolo     NA
## 5   Actara d1         5      1 Peciolo     NA
## 6   Actara d1         6      1 Peciolo     NA
## 7   Actara d1         7      1 Peciolo     NA
## 8   Actara d1         8      1 Peciolo     NA
## 9   Actara d1         9      1 Peciolo     NA
## 10  Actara d1        10      1 Peciolo     NA
## # ... with 2,090 more rows

total <- dados %>%
  filter(Coleta == 5) %>%
  group_by(Tratamento, Individuo) %>%
  summarise(Galhas = sum(Galhas, na.rm=T)) %>%
  mutate(Galhas = replace(Galhas, Galhas == 0, NA))

total

## Source: local data frame [140 x 3]
## Groups: Tratamento [7]
## 
##    Tratamento Individuo Galhas
##         <chr>     <int>  <int>
## 1   Actara d1         1     11
## 2   Actara d1         2     NA
## 3   Actara d1         3      4
## 4   Actara d1         4     NA
## 5   Actara d1         5     NA
## 6   Actara d1         6     NA
## 7   Actara d1         7     30
## 8   Actara d1         8     NA
## 9   Actara d1         9     NA
## 10  Actara d1        10     NA
## # ... with 130 more rows
…
local <- dados %>%
  filter(Coleta == 5) %>%
  group_by(Tratamento, Individuo, Local) %>%
  summarise(Galhas = sum(Galhas, na.rm=T)) %>%
  mutate(Galhas = replace(Galhas, Galhas == 0, NA))

local

## Source: local data frame [420 x 4]
## Groups: Tratamento, Individuo [140]
## 
##    Tratamento Individuo   Local Galhas
##         <chr>     <int>   <chr>  <int>
## 1   Actara d1         1   Caule      2
## 2   Actara d1         1 Nervura      3
## 3   Actara d1         1 Peciolo      6
## 4   Actara d1         2   Caule     NA
## 5   Actara d1         2 Nervura     NA
## 6   Actara d1         2 Peciolo     NA
## 7   Actara d1         3   Caule      1
## 8   Actara d1         3 Nervura      1
## 9   Actara d1         3 Peciolo      2
## 10  Actara d1         4   Caule     NA
## # ... with 410 more rows
…
total_coleta <- dados %>%
  filter(Coleta != 1 ) %>%
  group_by(Tratamento, Coleta, Individuo) %>%
  summarise(Galhas = sum(Galhas, na.rm=T)) %>%
  mutate(Galhas = replace(Galhas, Galhas == 0, NA))

total_coleta

## Source: local data frame [560 x 4]
## Groups: Tratamento, Coleta [28]
## 
##    Tratamento Coleta Individuo Galhas
##         <chr>  <int>     <int>  <int>
## 1   Actara d1      2         1      3
## 2   Actara d1      2         2     NA
## 3   Actara d1      2         3     NA
## 4   Actara d1      2         4     NA
## 5   Actara d1      2         5     NA
## 6   Actara d1      2         6     NA
## 7   Actara d1      2         7      2
## 8   Actara d1      2         8     NA
## 9   Actara d1      2         9     NA
## 10  Actara d1      2        10     NA
## # ... with 550 more rows
…
total_trat_local <- dados %>%
  filter(Coleta == 5) %>%
  group_by(Tratamento, Local) %>%
  summarise(Galhas = sum(Galhas, na.rm=T))

total_trat_local

## Source: local data frame [21 x 3]
## Groups: Tratamento [?]
## 
##     Tratamento   Local Galhas
##          <chr>   <chr>  <int>
## 1    Actara d1   Caule     13
## 2    Actara d1 Nervura     19
## 3    Actara d1 Peciolo     41
## 4    Actara d2   Caule     10
## 5    Actara d2 Nervura      9
## 6    Actara d2 Peciolo     38
## 7    Actara d3   Caule      7
## 8    Actara d3 Nervura      6
## 9    Actara d3 Peciolo     17
## 10 Evidence d1   Caule      6
## # ... with 11 more rows
…
# Seleciona apenas as Coletas de numero 5, em seguida calcula a mediana e o
# desvio padrão em função de cada Trtatamento e Local.

mediana_trat_local_desv <- dados %>%
  filter(Coleta == 5) %>%
  group_by(Tratamento, Local) %>%
  summarise(desv = sd(Galhas, na.rm=T)/sqrt(n()),
    Galhas = median(Galhas, na.rm=T))

mediana_trat_local_desv

## Source: local data frame [21 x 4]
## Groups: Tratamento [?]
## 
##     Tratamento   Local      desv Galhas
##          <chr>   <chr>     <dbl>  <dbl>
## 1    Actara d1   Caule 0.3291403      2
## 2    Actara d1 Nervura 0.8276473      3
## 3    Actara d1 Peciolo 1.0200373      4
## 4    Actara d2   Caule 0.2708013      1
## 5    Actara d2 Nervura 0.2813657      2
## 6    Actara d2 Peciolo 1.1751393      4
## 7    Actara d3   Caule 0.1118034      2
## 8    Actara d3 Nervura 0.0000000      2
## 9    Actara d3 Peciolo 0.2972092      3
## 10 Evidence d1   Caule 0.2236068      2
## # ... with 11 more rows
…
library(pacman)
p_load(RCurl, readr, dplyr, ggplot2, ggthemes, viridis)

dados <-   read_csv2("dados/tume0.csv")

# Cria um fator com o atributo para a variável Esp que informa a ordem crescente
# das espécies em função da altura dominante.

dados <- dados %>% 
  mutate(Esp = reorder(Esp, Hdom, function(x) max(x)),
  Idade = round(I_meses/12,1))
dados

## # A tibble: 138 x 16
##    N_tume             Esp I_meses Parc_m2 DAPmed DAPsd  Hmed   Hsd  Hdom
##     <int>          <fctr>   <int>   <dbl>  <dbl> <dbl> <dbl> <dbl> <dbl>
## 1       0         Clone_1      52  1425.6   11.4   1.4  16.5   1.3  17.8
## 2       0         Clone_2      52  1425.6   10.2   1.4  15.9   1.4  16.6
## 3       0         Clone_3      52  1425.6   10.7   1.6  15.0   1.3  16.1
## 4       0     E_benthamii      52  1425.6    9.0   2.7   9.8   2.3  13.0
## 5       0    E_botryoides      52  1425.6    9.1   4.3  10.8   3.4  15.3
## 6       0 E_camaldulensis      52  1425.6    8.3   2.9   8.3   2.3  11.8
## 7       0    E_citriodora      52  1425.6    8.0   3.5   8.3   2.8  12.0
## 8       0     E_cloeziana      52   928.8    7.5   2.5   7.0   2.0   9.6
## 9       0        E_deanei      52  1425.6   10.6   2.9  11.3   1.8  13.4
## 10      0        E_dunnii      52  1425.6    6.7   3.7   6.1   2.4  10.3
## # ... with 128 more rows, and 7 more variables: N_fuste <int>, Sobr <dbl>,
## #   G <dbl>, V <int>, IMA <dbl>, B <int>, Idade <dbl>
…
Histograma

dados <- read_csv2("dados/base_amazonia.csv")

dados

## # A tibble: 276 x 7
##             Especie              Nome_cientifico Comercial   DAP  HCom
##               <chr>                        <chr>     <chr> <int> <int>
## 1  NAO IDENTIFICADA             Nao Identificada       Nao    20    10
## 2            EMBIRA                Lecythidaceae       Nao    34    13
## 3  NAO IDENTIFICADA             Nao Identificada       Nao    18     6
## 4          SUCUPIRA   Leguminosae-Papilionoideae       Nao    18     7
## 5            CANELA                    Lauraceae       Nao    24    10
## 6             TACHI                Lecythidaceae       Sim    21    10
## 7       ENVIRA CAJU                   Annonaceae       Nao    20    11
## 8             JUTAI Leguminosae-Caesalpinioideae       Nao    38    13
## 9           CATUABA                 Vochysiaceae       Sim    57    13
## 10 NAO IDENTIFICADA             Nao Identificada       Nao    22     7
## # ... with 266 more rows, and 2 more variables: Volume <dbl>, QF <int>
…
