Testes Estatísticos
…
leitura <- read_csv2("dados/absorbancia_leitura.csv")

## Parsed with column specification:
## cols(
##   grupo = col_integer(),
##   amotra = col_character(),
##   repeticao = col_integer(),
##   absorbancia = col_double()
## )

leitura

## # A tibble: 45 x 4
##    grupo amotra repeticao absorbancia
##    <int>  <chr>     <int>       <dbl>
## 1      1     A1         1       0.545
## 2      1     A1         2       0.500
## 3      1     A1         3       0.545
## 4      1     A2         4       0.589
## 5      1     A2         5       0.600
## 6      1     A2         6       0.580
## 7      1     A3         7       0.520
## 8      1     A3         8       0.532
## 9      1     A3         9       0.587
## 10     1     B1         1       0.780
## # ... with 35 more rows
…
## Source: local data frame [4 x 6]
## Groups: grupo [2]
## 
##   grupo        term    estimate   std.error statistic      p.value
##   <int>       <chr>       <dbl>       <dbl>     <dbl>        <dbl>
## 1     1 (Intercept) 0.048350987 0.026642635  1.814797 1.437434e-01
## 2     1 absorbancia 1.177191172 0.055475721 21.219935 2.915898e-05
## 3     2 (Intercept) 0.002592636 0.002381102  1.088838 3.899437e-01
## 4     2 absorbancia 1.596364484 0.016734335 95.394555 1.098705e-04

grupos %>%
  augment(ajuste, newdata = leitura) %>%
  select(-.se.fit, concentracao = .fitted)

## Source: local data frame [90 x 5]
## Groups: grupo [2]
## 
##    grupo amotra repeticao absorbancia concentracao
##    <int>  <chr>     <int>       <dbl>        <dbl>
## 1      1     A1         1       0.545    0.6899202
## 2      1     A1         2       0.500    0.6369466
## 3      1     A1         3       0.545    0.6899202
## 4      1     A2         4       0.589    0.7417166
## 5      1     A2         5       0.600    0.7546657
## 6      1     A2         6       0.580    0.7311219
## 7      1     A3         7       0.520    0.6604904
## 8      1     A3         8       0.532    0.6746167
## 9      1     A3         9       0.587    0.7393622
## 10     1     B1         1       0.780    0.9665601
## # ... with 80 more rows
…
brix <- read_csv2("dados/brix.csv") %>% 
  mutate(amostra = as.factor(amostra))

## Parsed with column specification:
## cols(
##   amostra = col_integer(),
##   repeticao = col_integer(),
##   brix = col_double(),
##   temperatura = col_double(),
##   ph = col_double()
## )

brix

## # A tibble: 27 x 5
##    amostra repeticao  brix temperatura    ph
##     <fctr>     <int> <dbl>       <dbl> <dbl>
## 1        1         1  12.6        25.0   6.7
## 2        1         2  12.7        24.0   6.5
## 3        1         3  12.4        25.0   6.7
## 4        2         1  12.6        24.3   6.2
## 5        2         2  12.8        24.5   6.0
## 6        2         3  13.0        24.0   6.1
## 7        4         1  13.0        22.0   6.2
## 8        4         2  13.5        22.5   6.1
## 9        4         3  13.2        22.5   6.0
## 10       5         1  16.4        24.0   6.8
## # ... with 17 more rows
…
icumsa <- read_csv2("dados/icumsa.csv") %>% 
  mutate_at(vars(amostra, tipo), as.factor) 

## Parsed with column specification:
## cols(
##   amostra = col_integer(),
##   repeticao = col_integer(),
##   tipo = col_character(),
##   icumsa_leitura = col_integer()
## )

icumsa

## # A tibble: 27 x 4
##    amostra repeticao         tipo icumsa_leitura
##     <fctr>     <int>       <fctr>          <int>
## 1        1         1 Convencional             80
## 2        1         2 Convencional             86
## 3        1         3 Convencional             84
## 4        2         1 Convencional             50
## 5        2         2 Convencional             52
## 6        2         3 Convencional             56
## 7        3         1 Convencional             62
## 8        3         2 Convencional             70
## 9        3         3 Convencional             65
## 10       4         1 Convencional             90
## # ... with 17 more rows
…
