Exemplo - Curva padrão
…
leitura <- read_csv2("./dados/absorbancia_leitura.csv")

leitura

## # A tibble: 45 x 4
##    grupo amotra repeticao absorbancia
##    <int>  <chr>     <int>       <dbl>
## 1      1     A1         1       0.545
## 2      1     A1         2       0.500
## 3      1     A1         3       0.545
## 4      1     A2         4       0.589
## 5      1     A2         5       0.600
## 6      1     A2         6       0.580
## 7      1     A3         7       0.520
## 8      1     A3         8       0.532
## 9      1     A3         9       0.587
## 10     1     B1         1       0.780
## # ... with 35 more rows
…
grupos %>% tidy(ajuste)

## Source: local data frame [4 x 6]
## Groups: grupo [2]
## 
##   grupo        term    estimate   std.error statistic      p.value
##   <int>       <chr>       <dbl>       <dbl>     <dbl>        <dbl>
## 1     1 (Intercept) 0.048350987 0.026642635  1.814797 1.437434e-01
## 2     1 absorbancia 1.177191172 0.055475721 21.219935 2.915898e-05
## 3     2 (Intercept) 0.002592636 0.002381102  1.088838 3.899437e-01
## 4     2 absorbancia 1.596364484 0.016734335 95.394555 1.098705e-04

grupos %>% augment(ajuste, newdata = leitura)

## Source: local data frame [90 x 6]
## Groups: grupo [2]
## 
##    grupo amotra repeticao absorbancia   .fitted    .se.fit
##    <int>  <chr>     <int>       <dbl>     <dbl>      <dbl>
## 1      1     A1         1       0.545 0.6899202 0.01835531
## 2      1     A1         2       0.500 0.6369466 0.01727609
## 3      1     A1         3       0.545 0.6899202 0.01835531
## 4      1     A2         4       0.589 0.7417166 0.01966135
## 5      1     A2         5       0.600 0.7546657 0.02002107
## 6      1     A2         6       0.580 0.7311219 0.01937636
## 7      1     A3         7       0.520 0.6604904 0.01772048
## 8      1     A3         8       0.532 0.6746167 0.01801467
## 9      1     A3         9       0.587 0.7393622 0.01959728
## 10     1     B1         1       0.780 0.9665601 0.02720728
## # ... with 80 more rows
